[gd_resource type="VisualShader" load_steps=5 format=3 uid="uid://dc3tgfiyhoj63"]

[sub_resource type="VisualShaderNodeTexture" id="VisualShaderNodeTexture_5gdpg"]
source = 5

[sub_resource type="VisualShaderNodeInput" id="VisualShaderNodeInput_j16ru"]
input_name = "screen_uv"

[sub_resource type="VisualShaderNodeFloatConstant" id="VisualShaderNodeFloatConstant_p7b6e"]
constant = 3.0

[sub_resource type="VisualShaderNodeTexture2DParameter" id="VisualShaderNodeTexture2DParameter_p61at"]
parameter_name = "Screen"
texture_type = 1
texture_filter = 4
texture_source = 1

[resource]
code = "shader_type canvas_item;
render_mode blend_mix;

uniform sampler2D Screen : source_color, filter_linear_mipmap, hint_screen_texture;



void fragment() {
// Input:3
	vec2 n_out3p0 = SCREEN_UV;


// FloatConstant:4
	float n_out4p0 = 3.000000;


	vec4 n_out2p0;
// Texture2D:2
	n_out2p0 = textureLod(Screen, n_out3p0, n_out4p0);


// Output:0
	COLOR.rgb = vec3(n_out2p0.xyz);


}
"
mode = 1
flags/light_only = false
nodes/fragment/2/node = SubResource("VisualShaderNodeTexture_5gdpg")
nodes/fragment/2/position = Vector2(80, 100)
nodes/fragment/3/node = SubResource("VisualShaderNodeInput_j16ru")
nodes/fragment/3/position = Vector2(-480, 60)
nodes/fragment/4/node = SubResource("VisualShaderNodeFloatConstant_p7b6e")
nodes/fragment/4/position = Vector2(-320, 180)
nodes/fragment/5/node = SubResource("VisualShaderNodeTexture2DParameter_p61at")
nodes/fragment/5/position = Vector2(-940, 60)
nodes/fragment/connections = PackedInt32Array(2, 0, 0, 0, 3, 0, 2, 0, 4, 0, 2, 1, 5, 0, 2, 2)
