[gd_scene load_steps=14 format=3 uid="uid://bdvmealifunw7"]

[ext_resource type="Material" uid="uid://dafkbeva00ocw" path="res://Levels/Materials/BrownMaterial.tres" id="1_iot7p"]
[ext_resource type="PackedScene" uid="uid://dm06xkfh8oswa" path="res://Player/player.tscn" id="1_mf6vm"]
[ext_resource type="Material" uid="uid://bdhgssd6qbu4m" path="res://Levels/Materials/LightBrownMaterial.tres" id="2_ldy3r"]
[ext_resource type="Material" uid="uid://fttallsvl120" path="res://Levels/Materials/BlueMaterial.tres" id="3_1nmsd"]
[ext_resource type="Material" uid="uid://c7d28h0bit445" path="res://Levels/Materials/YellowMaterial.tres" id="5_4nc8i"]
[ext_resource type="Material" uid="uid://ceq8cgxlc7a1" path="res://Levels/Materials/GreyMaterial.tres" id="5_kyrxu"]
[ext_resource type="PackedScene" uid="uid://dahq5qu3nolhe" path="res://Enemy/enemy.tscn" id="7_hsv2b"]
[ext_resource type="PackedScene" uid="uid://drucmu04a5ge4" path="res://Pickups/bullet_pickup.tscn" id="8_yck21"]
[ext_resource type="PackedScene" uid="uid://u1l6eivhkvh1" path="res://Pickups/small_bullet_pickup.tscn" id="9_7iqkx"]

[sub_resource type="ProceduralSkyMaterial" id="ProceduralSkyMaterial_ianw3"]
sky_horizon_color = Color(0.64625, 0.65575, 0.67075, 1)
ground_horizon_color = Color(0.64625, 0.65575, 0.67075, 1)

[sub_resource type="Sky" id="Sky_5ppm1"]
sky_material = SubResource("ProceduralSkyMaterial_ianw3")

[sub_resource type="Environment" id="Environment_cgopu"]
background_mode = 2
sky = SubResource("Sky_5ppm1")
tonemap_mode = 2
glow_enabled = true

[sub_resource type="NavigationMesh" id="NavigationMesh_vk16t"]
vertices = PackedVector3Array(-31.5, 0.5, -21.75, -27.5, 0.5, -21.75, -27.25, 0.5, -24, -31.5, 0.5, -31.5, -27.25, 0.5, -24, -16.75, 0.5, -24, -16.75, 0.5, -31.5, -31.5, 0.5, -31.5, -16.25, 0.5, -8.5, -15.5, 0.5, -8, -14, 0.5, -9, -16.25, 0.5, -23.75, -10, 0.5, -6.5, -5, 0.5, -6.5, -4.75, 0.5, -8, -10.5, 0.5, -8.25, -3.25, 0.5, -8, 12.5, 0.5, -12.25, 15, 0.5, -13, -10.5, 0.5, -8.25, -4.75, 0.5, -8, -3.25, 0.5, -8, -12, 0.5, -9, -16.75, 0.5, -31.5, -16.75, 0.5, -24, -16.25, 0.5, -23.75, -16.25, 0.5, -23.75, -12, 0.5, -9, -3.25, 0.5, -8, 15, 0.5, -13, 15, 0.5, -31.5, -16.75, 0.5, -31.5, -3.25, 0.5, -8, 12, 0.5, -9.25, 12.5, 0.5, -12.25, -16.25, 0.5, -23.75, -14, 0.5, -9, -12, 0.5, -9, 17.25, 0.5, -12.5, 18, 0.5, -10, 31.5, 0.5, -10, 15, 0.5, -13, 17.25, 0.5, -12.5, 31.5, 0.5, -10, 31.5, 0.5, -31.5, 15, 0.5, -31.5, -26.5, 5.5, -23, -26.5, 5.5, -8.75, -17.25, 5.5, -8.75, -17.25, 5.5, -23, -26.25, 0.5, -22.75, -26.25, 0.5, -9, -17.5, 0.5, -9, -17.5, 0.5, -22.75, -31.5, 0.5, -10, -27.5, 0.5, -10, -27.5, 0.5, -21.75, -31.5, 0.5, -21.75, -15.5, 5.25, -18.25, -15.5, 5.25, -17.75, 3.5, 5.25, -17.75, 3.5, 5.25, -18.25, -16.5, 6, -13.5, -16.5, 6, -11.5, -13.5, 3, -11.5, -13.5, 3.25, -13.5, 17, 1.5, -9.5, 15.5, 1.5, -12, 13, 1.5, -10.5, 13.5, 1.5, -8.5, 14.5, 1.5, -8, 16.5, 1.5, -8.5, 15.5, 1.5, -12, 13.5, 1.5, -11.5, 13, 1.5, -10.5, 17, 1.5, -9.5, 16.5, 1.5, -11.5, 15.5, 1.5, -12, -27.5, 0.5, -4.75, -25.5, 0.5, -5, -25.5, 0.5, -7.75, -27.5, 0.5, -8, -31.5, 0.5, -10, -31.5, 0.5, -2.75, -27.5, 0.5, -4.75, -27.5, 0.5, -8, -31.5, 0.5, -2.75, -27.5, 0.5, -2.75, -27.5, 0.5, -4.75, -27.5, 0.5, -8, -27.5, 0.5, -10, -31.5, 0.5, -10, 15, 0.5, -7, 15, 0.5, -6, 17.25, 0.5, -5.5, 17.25, 0.5, -7.5, 18, 0.5, -10, 17.25, 0.5, -7.5, 17.25, 0.5, -5.5, 18, 0.5, -3, 31.5, 0.5, -3, 31.5, 0.5, -10, 15, 0.5, -6, 15, 0.5, -7, 12.75, 0.5, -7.5, 12.5, 0.5, -5.25, 3, 0.5, 1, 4, 0.5, 1.5, 12, 0.5, -2, 12, 0.5, -4, 12, 0.5, -4, 12.5, 0.5, -5.25, 12.75, 0.5, -7.5, 12, 0.5, -9.25, -3.25, 0.5, -8, -2.75, 0.5, -7.75, 12, 0.5, -9.25, 4, 0.5, 1.5, 12.5, 0.5, -1, 12, 0.5, -2, -2.75, 0.5, -7.75, -2.75, 0.5, -6.5, -1.75, 0.5, 1, 3, 0.5, 1, 12, 0.5, -4, 12, 0.5, -9.25, -15.5, 0.5, -8, -16.25, 0.5, -8.5, -16.75, 0.5, -7.75, -16, 0.5, -7, -16.5, 0.5, -5, -16.25, 0.5, -0.5, -15.5, 0.5, -3.75, -16, 0.5, -7, -16.25, 0.5, -0.5, -13.25, 0.5, -0.5, -13.25, 0.5, -3, -15.5, 0.5, -3.75, -16.75, 0.5, -7.75, -25.5, 0.5, -7.75, -25.5, 0.5, -5, -16.5, 0.5, -5, -16, 0.5, -7, -11, 3.5, -5.5, -12.5, 3.5, -8, -15, 3.5, -6.5, -14.5, 3.5, -4.5, -13.5, 3.5, -4, -11.5, 3.5, -4.5, -12.5, 3.5, -8, -14.5, 3.5, -7.5, -15, 3.5, -6.5, -11, 3.5, -5.5, -11.5, 3.5, -7.5, -12.5, 3.5, -8, -11.25, 0.5, -5.75, -12.75, 0.5, -7.75, -14.75, 0.5, -6.25, -14.25, 0.5, -4.75, -13.25, 0.5, -4.25, -11.75, 0.5, -4.75, -12.75, 0.5, -7.75, -14.25, 0.5, -7.25, -14.75, 0.5, -6.25, -11.25, 0.5, -5.75, -11.75, 0.5, -7.25, -12.75, 0.5, -7.75, -8.5, 0.5, 5.75, -7, 0.5, 5.25, -7, 0.5, 4, -13.25, 0.5, -3, -13.25, 0.5, -0.5, -12.75, 0.5, -0.25, -12, 0.5, -3, -1.75, 0.5, 1, -3.25, 0.5, -5.75, -4.75, 0.5, -5.75, -10.5, 0.5, -3.75, -12.75, 0.5, -0.25, -6.25, 0.5, 2.5, -10.25, 0.5, 8.5, -9, 0.5, 8.25, -8.5, 0.5, 5.75, -12.75, 0.5, 8, -8.5, 0.5, 5.75, -7, 0.5, 4, -6.25, 0.5, 2.5, -12.75, 0.5, -0.25, -12.75, 0.5, 8, -10.5, 0.5, -3.75, -12, 0.5, -3, -12.75, 0.5, -0.25, -6.25, 0.5, 2.5, -3.5, 0.5, 2, -1.75, 0.5, 1, -1.75, 0.5, 1, -2.75, 0.5, -6.5, -3.25, 0.5, -5.75, -4.75, 0.5, -5.75, -5, 0.5, -6.5, -10, 0.5, -6.5, -10.5, 0.5, -3.75, 17, 2.5, -2.5, 15.5, 2.5, -5, 13, 2.5, -3.5, 13.5, 2.5, -1.5, 14.5, 2.5, -1, 16.5, 2.5, -1.5, 15.5, 2.5, -5, 13.5, 2.5, -4.5, 13, 2.5, -3.5, 17, 2.5, -2.5, 16.5, 2.5, -4.5, 15.5, 2.5, -5, 16.75, 0.5, -2.75, 15.25, 0.5, -4.75, 13.25, 0.5, -3.25, 13.75, 0.5, -1.75, 14.75, 0.5, -1.25, 16.25, 0.5, -1.75, 15.25, 0.5, -4.75, 13.75, 0.5, -4.25, 13.25, 0.5, -3.25, 16.75, 0.5, -2.75, 16.25, 0.5, -4.25, 15.25, 0.5, -4.75, -26.5, 5.5, -4, -26.5, 5.5, 10.25, -17.25, 5.5, 10.25, -17.25, 5.5, -4, -26.25, 0.5, -3.75, -26.25, 0.5, 10, -17.5, 0.5, 10, -17.5, 0.5, -3.75, 15, 0.5, 0, 15, 0.5, 1, 17.25, 0.5, 1.5, 17.25, 0.5, -0.5, 18, 0.5, -3, 17.25, 0.5, -0.5, 17.25, 0.5, 1.5, 18, 0.5, 4, 31.5, 0.5, 4, 31.5, 0.5, -3, -31.5, 0.5, 9, -27.5, 0.5, 9, -27.5, 0.5, -2.75, -31.5, 0.5, -2.75, 12.75, 0.5, 8.5, 15, 0.5, 8, 15, 0.5, 7, 12.5, 0.5, 6.25, 12.5, 0.5, 6.25, 12, 0.5, 3, 9, 0.5, 8, 10.5, 0.5, 8.75, 12.75, 0.5, 1.5, 15, 0.5, 1, 15, 0.5, 0, 12.75, 0.5, -0.5, 10.5, 0.5, 8.75, 11, 0.5, 10, 12, 0.5, 10, 12.75, 0.5, 8.5, 12.5, 0.5, 6.25, 12.75, 0.5, 1.5, 12.75, 0.5, -0.5, 12.5, 0.5, -1, 12.5, 0.5, 13.25, 10.5, 0.5, 13.25, 8, 0.5, 14, 8, 0.5, 15.5, 15, 0.5, 15.5, 15, 0.5, 14, 11, 0.5, 10, 10.5, 0.5, 13.25, 12.5, 0.5, 13.25, 12, 0.5, 10, 5, 0.5, 5, 4, 0.5, 6.5, 5.75, 0.5, 8.5, 5, 0.5, 5, 5.75, 0.5, 8.5, 9, 0.5, 8, 5, 0.5, 3, 12, 0.5, 3, 12.75, 0.5, 1.5, 12.5, 0.5, -1, 4, 0.5, 1.5, 5, 0.5, 3, 9, 0.5, 8, -16, 4.5, 0.5, -16, 4.5, 1.75, -13.75, 4.5, 1.75, -13.75, 4.5, 0.5, -15.75, 0.5, 0.75, -15.75, 0.5, 1.5, -14, 0.5, 1.5, -14, 0.5, 0.75, -2.5, 9.5, 5.5, -0.5, 9.5, 6, -1, 9.5, 5, -1, 9.5, 3, -0.5, 9.5, 2, -2.5, 9.5, 2.5, -1, 9.5, 3, -2.5, 9.5, 2.5, -3, 9.5, 3.5, -2.5, 9.5, 5.5, -1, 9.5, 5, 4, 10.5, 4.5, 2.5, 10.5, 2, 0, 10.5, 3.5, 0.5, 10.5, 5.5, 1.5, 10.5, 6, 3.5, 10.5, 5.5, 2.5, 10.5, 2, 0.5, 10.5, 2.5, 0, 10.5, 3.5, 4, 10.5, 4.5, 3.5, 10.5, 2.5, 2.5, 10.5, 2, 17, 3.5, 4.5, 15.5, 3.5, 2, 13, 3.5, 3.5, 13.5, 3.5, 5.5, 14.5, 3.5, 6, 16.5, 3.5, 5.5, 15.5, 3.5, 2, 13.5, 3.5, 2.5, 13, 3.5, 3.5, 17, 3.5, 4.5, 16.5, 3.5, 2.5, 15.5, 3.5, 2, -1.75, 0.5, 2.5, -1.25, 0.5, 4, -0.75, 0.5, 3, -0.75, 0.5, 2.25, 1.75, 0.5, 5.75, 3.25, 0.5, 5.25, 3.75, 0.5, 4.25, 3.25, 0.5, 2.75, 1.75, 0.5, 2.25, 16.75, 0.5, 4.25, 15.25, 0.5, 2.25, 13.25, 0.5, 3.75, 13.75, 0.5, 5.25, 14.75, 0.5, 5.75, 16.25, 0.5, 5.25, 15.25, 0.5, 2.25, 13.75, 0.5, 2.75, 13.25, 0.5, 3.75, 16.75, 0.5, 4.25, 16.25, 0.5, 2.75, 15.25, 0.5, 2.25, -16, 3.5, 2.75, -16, 3.5, 3.75, -13.75, 3.5, 3.75, -13.75, 3.5, 2.75, -15.75, 0.5, 2.75, -15.75, 0.5, 3.5, -14, 0.5, 3.5, -14, 0.5, 2.75, -4.5, 8.5, 7, -3, 8.5, 6.75, -4, 8.5, 5, -6, 8.5, 4.5, -5.5, 8.5, 6.5, -5.5, 8.5, 3.5, -6, 8.5, 4.5, -4, 8.5, 5, -4, 8.5, 3, -5.75, 0.5, 4.75, -3.75, 0.5, 5.5, -4, 0.5, 3.25, -5.25, 0.5, 3.75, 0.25, 0.5, 3.75, 0.25, 0.5, 4.25, 0.75, 0.5, 4.25, 0.75, 0.5, 3.75, 15, 0.5, 7, 15, 0.5, 8, 17.25, 0.5, 8.5, 17.25, 0.5, 6.5, 18, 0.5, 10, 17.5, 0.5, 13.25, 21, 0.5, 15.5, 17.5, 0.5, 13.25, 15, 0.5, 14, 15, 0.5, 15.5, 21, 0.5, 15.5, 17.25, 0.5, 6.5, 17.25, 0.5, 8.5, 18, 0.5, 10, 21, 0.5, 15.5, 21.25, 0.5, 17.25, 31.5, 0.5, 17, 18, 0.5, 4, 17.25, 0.5, 6.5, 18, 0.5, 10, 21, 0.5, 15.5, 31.5, 0.5, 17, 31.5, 0.5, 4, -16, 2.5, 4.75, -16, 2.5, 5.75, -13.75, 2.5, 5.75, -13.75, 2.5, 4.75, -15.75, 0.5, 4.75, -15.75, 0.5, 5.5, -14, 0.5, 5.5, -14, 0.5, 4.75, -4.5, 7.5, 9.5, -4, 7.5, 8.5, -4, 7.5, 8, -6.25, 7.5, 7.5, -6.75, 7.5, 6.25, -7.5, 7.5, 6.5, -8, 7.5, 7.5, -6.25, 7.5, 7.5, -8, 7.5, 7.5, -7.5, 7.5, 9.5, -6.5, 7.5, 10, -4.5, 7.5, 9.5, -4, 7.5, 8, -5.75, 0.5, 8.5, -5.5, 0.5, 9.5, -4.75, 0.5, 9.25, -6.25, 0.5, 7.5, -6.5, 0.5, 6.5, -7.25, 0.5, 6.75, -5.75, 0.5, 8.5, -4.75, 0.5, 9.25, -4.25, 0.5, 8.25, -6.25, 0.5, 7.5, -6.25, 0.5, 7.5, -7.25, 0.5, 6.75, -7.75, 0.5, 7.75, -5.75, 0.5, 8.5, 5.25, 0.5, 15.5, 8, 0.5, 15.5, 8, 0.5, 14, 5.5, 0.5, 13.25, 5, 0.5, 10, 3, 0.5, 7, -1.75, 0.5, 7.5, -3.5, 0.5, 10.25, -6.25, 0.5, 15.5, 5, 0.5, 16, 5, 0.5, 16, 5.25, 0.5, 15.5, 5.5, 0.5, 13.25, 5, 0.5, 10, 5.75, 0.5, 8.5, 4, 0.5, 6.5, 3, 0.5, 7, 5, 0.5, 10, -1.75, 0.5, 7.5, -3, 0.5, 7.75, -3.5, 0.5, 10.25, -3.5, 0.5, 10.25, -5, 0.5, 10.75, -6.25, 0.5, 15.5, 3, 0.5, 7, -1.5, 0.5, 7, -1.75, 0.5, 7.5, -16, 1.5, 6.75, -16, 1.5, 7.75, -13.75, 1.5, 7.75, -13.75, 1.5, 6.75, -11, 0.5, 10, -10.25, 0.5, 8.5, -12.75, 0.5, 8, -13.25, 0.5, 8.75, -13.25, 0.5, 8.75, -16.25, 0.5, 8.75, -16.25, 0.5, 10.75, -16.75, 0.5, 11.25, -18.5, 0.5, 11.25, -18.25, 0.5, 14, -16.5, 0.5, 14, -16.25, 0.5, 10.75, -16.5, 0.5, 14, -16.25, 0.5, 14.75, -12, 0.5, 14.5, -12, 0.5, 13, -13.25, 0.5, 8.75, -12, 0.5, 13, -11, 0.5, 11.5, -11, 0.5, 10, -13.25, 0.5, 8.75, -16.25, 0.5, 10.75, -16.75, 0.5, 11.25, -16.5, 0.5, 14, -31.5, 0.5, 9, -31.5, 0.5, 16.25, -27.5, 0.5, 16.25, -27.25, 0.5, 14, -27.25, 0.5, 11.25, -27.5, 0.5, 9, -27.25, 0.5, 14, -18.25, 0.5, 14, -18.5, 0.5, 11.25, -27.25, 0.5, 11.25, 10, 5.5, 11.5, 8.5, 5.5, 9, 6, 5.5, 10.5, 6.5, 5.5, 12.5, 7.5, 5.5, 13, 9.5, 5.5, 12.5, 8.5, 5.5, 9, 6.5, 5.5, 9.5, 6, 5.5, 10.5, 10, 5.5, 11.5, 9.5, 5.5, 9.5, 8.5, 5.5, 9, 17, 4.5, 11.5, 15.5, 4.5, 9, 13, 4.5, 10.5, 13.5, 4.5, 12.5, 14.5, 4.5, 13, 16.5, 4.5, 12.5, 15.5, 4.5, 9, 13.5, 4.5, 9.5, 13, 4.5, 10.5, 17, 4.5, 11.5, 16.5, 4.5, 9.5, 15.5, 4.5, 9, -6.5, 6.5, 12.5, -6, 6.5, 11.5, -6, 6.5, 11, -8.25, 6.5, 10.5, -8.75, 6.5, 9.25, -9.5, 6.5, 9.5, -10, 6.5, 10.5, -8.25, 6.5, 10.5, -10, 6.5, 10.5, -9.5, 6.5, 12.5, -8.5, 6.5, 13, -6.5, 6.5, 12.5, -6, 6.5, 11, 9.75, 0.5, 11.25, 8.25, 0.5, 9.25, 6.25, 0.5, 10.75, 6.75, 0.5, 12.25, 7.75, 0.5, 12.75, 9.25, 0.5, 12.25, 8.25, 0.5, 9.25, 6.75, 0.5, 9.75, 6.25, 0.5, 10.75, 9.75, 0.5, 11.25, 9.25, 0.5, 9.75, 8.25, 0.5, 9.25, 16.75, 0.5, 11.25, 15.25, 0.5, 9.25, 13.25, 0.5, 10.75, 13.75, 0.5, 12.25, 14.75, 0.5, 12.75, 16.25, 0.5, 12.25, 15.25, 0.5, 9.25, 13.75, 0.5, 9.75, 13.25, 0.5, 10.75, 16.75, 0.5, 11.25, 16.25, 0.5, 9.75, 15.25, 0.5, 9.25, -8.25, 0.5, 10.5, -8.5, 0.5, 9.5, -9.25, 0.5, 9.75, -9.75, 0.5, 10.75, -6.75, 0.5, 11.75, -6.25, 0.5, 11.25, -8.25, 0.5, 10.5, -9.75, 0.5, 10.75, -7.5, 5.5, 15.5, -7, 5.5, 14.5, -7, 5.5, 14, -9, 5.5, 14, -9.5, 5.5, 16, -9, 5.5, 14, -10.5, 5.5, 13, -11, 5.5, 13.5, -10.5, 5.5, 15.5, -9.5, 5.5, 16, -10.25, 0.5, 13.25, -10.75, 0.5, 13.75, -10.25, 0.5, 15.25, -9.25, 0.5, 15.75, -7.75, 0.5, 15.25, -7.25, 0.5, 14.25, -16.75, 0.5, 30.25, -18.5, 0.5, 30.25, -18.25, 0.5, 31.5, 6.5, 0.5, 31.5, -11.5, 0.5, 16.25, -12, 0.5, 14.5, -16.25, 0.5, 14.75, 6.5, 0.5, 31.5, 6.75, 0.5, 26.75, 5, 0.5, 26.5, -10, 0.5, 17, -11.5, 0.5, 16.25, -16.25, 0.5, 14.75, -16.25, 0.5, 29.75, 5, 0.5, 16, -6.25, 0.5, 15.5, -6.75, 0.5, 16.5, 5, 0.5, 16, -6.75, 0.5, 16.5, -8, 0.5, 17, 5, 0.5, 26.5, -16.25, 0.5, 29.75, -16.75, 0.5, 30.25, 6.5, 0.5, 31.5, -8, 0.5, 17, -10, 0.5, 17, -16.25, 0.5, 29.75, 6.5, 0.5, 31.5, 5, 0.5, 26.5, -26.5, 5.5, 15, -26.5, 5.5, 29.25, -17.25, 5.5, 29.25, -17.25, 5.5, 15, -26.25, 0.5, 15.25, -26.25, 0.5, 29, -17.5, 0.5, 29, -17.5, 0.5, 15.25, -18.25, 0.5, 31.5, -18.5, 0.5, 30.25, -27.5, 0.5, 30, -31.5, 0.5, 31.5, -27.5, 0.5, 30, -27.5, 0.5, 16.25, -31.5, 0.5, 16.25, -31.5, 0.5, 31.5, 6, 6.5, 16.5, 6, 6.5, 25.75, 20.25, 6.5, 25.75, 20.25, 6.5, 16.5, 6.25, 0.5, 16.75, 6.25, 0.5, 25.5, 20, 0.5, 25.5, 20, 0.5, 16.75, 20.75, 0.5, 26.75, 19.25, 0.5, 26.75, 19.5, 0.5, 31.5, 21.25, 0.5, 26.25, 20.75, 0.5, 26.75, 19.5, 0.5, 31.5, 31.5, 0.5, 31.5, 21.25, 0.5, 26.25, 31.5, 0.5, 31.5, 31.5, 0.5, 17, 21.25, 0.5, 17.25, -14, 6, 18.5, -14, 6, 25.5, 4, 6, 25.5, 4, 6, 18.5, 6.5, 0.5, 31.5, 19.5, 0.5, 31.5, 19.25, 0.5, 26.75, 6.75, 0.5, 26.75)
polygons = [PackedInt32Array(1, 0, 2), PackedInt32Array(2, 0, 3), PackedInt32Array(5, 4, 6), PackedInt32Array(6, 4, 7), PackedInt32Array(9, 8, 10), PackedInt32Array(10, 8, 11), PackedInt32Array(13, 12, 14), PackedInt32Array(14, 12, 15), PackedInt32Array(18, 17, 16), PackedInt32Array(20, 19, 21), PackedInt32Array(21, 19, 22), PackedInt32Array(25, 24, 23), PackedInt32Array(27, 26, 28), PackedInt32Array(28, 26, 31), PackedInt32Array(28, 31, 29), PackedInt32Array(29, 31, 30), PackedInt32Array(34, 33, 32), PackedInt32Array(37, 36, 35), PackedInt32Array(40, 39, 38), PackedInt32Array(42, 41, 43), PackedInt32Array(43, 41, 45), PackedInt32Array(43, 45, 44), PackedInt32Array(49, 48, 46), PackedInt32Array(46, 48, 47), PackedInt32Array(53, 52, 50), PackedInt32Array(50, 52, 51), PackedInt32Array(57, 56, 54), PackedInt32Array(54, 56, 55), PackedInt32Array(61, 60, 58), PackedInt32Array(58, 60, 59), PackedInt32Array(65, 64, 62), PackedInt32Array(62, 64, 63), PackedInt32Array(71, 70, 66), PackedInt32Array(66, 70, 69), PackedInt32Array(66, 69, 68), PackedInt32Array(66, 68, 67), PackedInt32Array(74, 73, 72), PackedInt32Array(77, 76, 75), PackedInt32Array(79, 78, 80), PackedInt32Array(80, 78, 81), PackedInt32Array(85, 84, 82), PackedInt32Array(82, 84, 83), PackedInt32Array(88, 87, 86), PackedInt32Array(91, 90, 89), PackedInt32Array(92, 95, 93), PackedInt32Array(93, 95, 94), PackedInt32Array(97, 96, 98), PackedInt32Array(98, 96, 99), PackedInt32Array(99, 96, 101), PackedInt32Array(99, 101, 100), PackedInt32Array(103, 102, 104), PackedInt32Array(104, 102, 105), PackedInt32Array(107, 106, 108), PackedInt32Array(108, 106, 109), PackedInt32Array(111, 110, 112), PackedInt32Array(112, 110, 113), PackedInt32Array(116, 115, 114), PackedInt32Array(119, 118, 117), PackedInt32Array(121, 120, 122), PackedInt32Array(122, 120, 123), PackedInt32Array(123, 120, 124), PackedInt32Array(124, 120, 125), PackedInt32Array(127, 126, 128), PackedInt32Array(128, 126, 129), PackedInt32Array(133, 132, 130), PackedInt32Array(130, 132, 131), PackedInt32Array(136, 135, 137), PackedInt32Array(137, 135, 134), PackedInt32Array(142, 141, 138), PackedInt32Array(138, 141, 139), PackedInt32Array(139, 141, 140), PackedInt32Array(148, 147, 143), PackedInt32Array(143, 147, 146), PackedInt32Array(143, 146, 145), PackedInt32Array(143, 145, 144), PackedInt32Array(151, 150, 149), PackedInt32Array(154, 153, 152), PackedInt32Array(160, 159, 155), PackedInt32Array(155, 159, 158), PackedInt32Array(155, 158, 157), PackedInt32Array(155, 157, 156), PackedInt32Array(161, 163, 162), PackedInt32Array(164, 166, 165), PackedInt32Array(169, 168, 167), PackedInt32Array(171, 170, 172), PackedInt32Array(172, 170, 173), PackedInt32Array(176, 175, 177), PackedInt32Array(177, 175, 178), PackedInt32Array(178, 175, 179), PackedInt32Array(179, 175, 174), PackedInt32Array(181, 180, 182), PackedInt32Array(182, 180, 183), PackedInt32Array(185, 184, 186), PackedInt32Array(186, 184, 188), PackedInt32Array(186, 188, 187), PackedInt32Array(191, 190, 189), PackedInt32Array(194, 193, 192), PackedInt32Array(197, 196, 195), PackedInt32Array(199, 198, 200), PackedInt32Array(200, 198, 201), PackedInt32Array(207, 206, 202), PackedInt32Array(202, 206, 205), PackedInt32Array(202, 205, 204), PackedInt32Array(202, 204, 203), PackedInt32Array(210, 209, 208), PackedInt32Array(213, 212, 211), PackedInt32Array(219, 218, 214), PackedInt32Array(214, 218, 217), PackedInt32Array(214, 217, 216), PackedInt32Array(214, 216, 215), PackedInt32Array(220, 222, 221), PackedInt32Array(223, 225, 224), PackedInt32Array(229, 228, 226), PackedInt32Array(226, 228, 227), PackedInt32Array(233, 232, 230), PackedInt32Array(230, 232, 231), PackedInt32Array(234, 237, 235), PackedInt32Array(235, 237, 236), PackedInt32Array(239, 238, 240), PackedInt32Array(240, 238, 241), PackedInt32Array(241, 238, 243), PackedInt32Array(241, 243, 242), PackedInt32Array(247, 246, 244), PackedInt32Array(244, 246, 245), PackedInt32Array(249, 248, 250), PackedInt32Array(250, 248, 251), PackedInt32Array(255, 254, 252), PackedInt32Array(252, 254, 253), PackedInt32Array(257, 256, 258), PackedInt32Array(258, 256, 259), PackedInt32Array(261, 260, 262), PackedInt32Array(262, 260, 263), PackedInt32Array(263, 260, 264), PackedInt32Array(267, 266, 265), PackedInt32Array(273, 272, 268), PackedInt32Array(268, 272, 269), PackedInt32Array(269, 272, 270), PackedInt32Array(270, 272, 271), PackedInt32Array(277, 276, 274), PackedInt32Array(274, 276, 275), PackedInt32Array(280, 279, 278), PackedInt32Array(281, 284, 282), PackedInt32Array(282, 284, 283), PackedInt32Array(286, 285, 287), PackedInt32Array(287, 285, 290), PackedInt32Array(287, 290, 289), PackedInt32Array(287, 289, 288), PackedInt32Array(294, 293, 291), PackedInt32Array(291, 293, 292), PackedInt32Array(298, 297, 295), PackedInt32Array(295, 297, 296), PackedInt32Array(299, 301, 300), PackedInt32Array(304, 303, 302), PackedInt32Array(306, 305, 307), PackedInt32Array(307, 305, 309), PackedInt32Array(307, 309, 308), PackedInt32Array(315, 314, 310), PackedInt32Array(310, 314, 313), PackedInt32Array(310, 313, 312), PackedInt32Array(310, 312, 311), PackedInt32Array(318, 317, 316), PackedInt32Array(321, 320, 319), PackedInt32Array(327, 326, 322), PackedInt32Array(322, 326, 325), PackedInt32Array(322, 325, 324), PackedInt32Array(322, 324, 323), PackedInt32Array(330, 329, 328), PackedInt32Array(333, 332, 331), PackedInt32Array(337, 336, 334), PackedInt32Array(334, 336, 335), PackedInt32Array(339, 338, 340), PackedInt32Array(340, 338, 341), PackedInt32Array(341, 338, 342), PackedInt32Array(348, 347, 343), PackedInt32Array(343, 347, 346), PackedInt32Array(343, 346, 345), PackedInt32Array(343, 345, 344), PackedInt32Array(349, 351, 350), PackedInt32Array(352, 354, 353), PackedInt32Array(358, 357, 355), PackedInt32Array(355, 357, 356), PackedInt32Array(362, 361, 359), PackedInt32Array(359, 361, 360), PackedInt32Array(363, 367, 364), PackedInt32Array(364, 367, 365), PackedInt32Array(365, 367, 366), PackedInt32Array(368, 371, 369), PackedInt32Array(369, 371, 370), PackedInt32Array(375, 374, 372), PackedInt32Array(372, 374, 373), PackedInt32Array(379, 378, 376), PackedInt32Array(376, 378, 377), PackedInt32Array(380, 383, 381), PackedInt32Array(381, 383, 382), PackedInt32Array(386, 385, 384), PackedInt32Array(388, 387, 389), PackedInt32Array(389, 387, 390), PackedInt32Array(393, 392, 391), PackedInt32Array(396, 395, 394), PackedInt32Array(398, 397, 399), PackedInt32Array(399, 397, 400), PackedInt32Array(400, 397, 402), PackedInt32Array(400, 402, 401), PackedInt32Array(406, 405, 403), PackedInt32Array(403, 405, 404), PackedInt32Array(410, 409, 407), PackedInt32Array(407, 409, 408), PackedInt32Array(413, 412, 411), PackedInt32Array(416, 415, 417), PackedInt32Array(417, 415, 414), PackedInt32Array(420, 419, 421), PackedInt32Array(421, 419, 418), PackedInt32Array(421, 418, 422), PackedInt32Array(422, 418, 423), PackedInt32Array(426, 425, 424), PackedInt32Array(429, 428, 427), PackedInt32Array(431, 430, 432), PackedInt32Array(432, 430, 433), PackedInt32Array(435, 434, 436), PackedInt32Array(436, 434, 437), PackedInt32Array(439, 438, 440), PackedInt32Array(440, 438, 441), PackedInt32Array(444, 443, 445), PackedInt32Array(445, 443, 442), PackedInt32Array(445, 442, 447), PackedInt32Array(445, 447, 446), PackedInt32Array(449, 448, 450), PackedInt32Array(450, 448, 451), PackedInt32Array(453, 452, 454), PackedInt32Array(454, 452, 455), PackedInt32Array(458, 457, 456), PackedInt32Array(461, 460, 459), PackedInt32Array(464, 463, 462), PackedInt32Array(468, 467, 465), PackedInt32Array(465, 467, 466), PackedInt32Array(472, 471, 469), PackedInt32Array(469, 471, 470), PackedInt32Array(475, 474, 473), PackedInt32Array(479, 478, 476), PackedInt32Array(476, 478, 477), PackedInt32Array(481, 480, 482), PackedInt32Array(482, 480, 483), PackedInt32Array(483, 480, 484), PackedInt32Array(484, 480, 485), PackedInt32Array(487, 486, 488), PackedInt32Array(488, 486, 489), PackedInt32Array(492, 491, 490), PackedInt32Array(496, 495, 497), PackedInt32Array(497, 495, 498), PackedInt32Array(498, 495, 494), PackedInt32Array(498, 494, 493), PackedInt32Array(502, 501, 499), PackedInt32Array(499, 501, 500), PackedInt32Array(508, 507, 503), PackedInt32Array(503, 507, 506), PackedInt32Array(503, 506, 505), PackedInt32Array(503, 505, 504), PackedInt32Array(511, 510, 509), PackedInt32Array(514, 513, 512), PackedInt32Array(520, 519, 515), PackedInt32Array(515, 519, 518), PackedInt32Array(515, 518, 517), PackedInt32Array(515, 517, 516), PackedInt32Array(523, 522, 521), PackedInt32Array(526, 525, 524), PackedInt32Array(529, 528, 527), PackedInt32Array(532, 531, 533), PackedInt32Array(533, 531, 530), PackedInt32Array(536, 535, 537), PackedInt32Array(537, 535, 534), PackedInt32Array(537, 534, 538), PackedInt32Array(538, 534, 539), PackedInt32Array(545, 544, 540), PackedInt32Array(540, 544, 543), PackedInt32Array(540, 543, 542), PackedInt32Array(540, 542, 541), PackedInt32Array(546, 548, 547), PackedInt32Array(549, 551, 550), PackedInt32Array(557, 556, 552), PackedInt32Array(552, 556, 555), PackedInt32Array(552, 555, 554), PackedInt32Array(552, 554, 553), PackedInt32Array(558, 560, 559), PackedInt32Array(561, 563, 562), PackedInt32Array(565, 564, 566), PackedInt32Array(566, 564, 567), PackedInt32Array(569, 568, 570), PackedInt32Array(570, 568, 571), PackedInt32Array(573, 572, 574), PackedInt32Array(574, 572, 575), PackedInt32Array(575, 572, 576), PackedInt32Array(578, 577, 579), PackedInt32Array(579, 577, 580), PackedInt32Array(580, 577, 581), PackedInt32Array(583, 582, 584), PackedInt32Array(584, 582, 585), PackedInt32Array(585, 582, 586), PackedInt32Array(586, 582, 587), PackedInt32Array(589, 588, 590), PackedInt32Array(590, 588, 591), PackedInt32Array(592, 594, 593), PackedInt32Array(597, 596, 595), PackedInt32Array(599, 598, 600), PackedInt32Array(600, 598, 601), PackedInt32Array(604, 603, 602), PackedInt32Array(606, 605, 607), PackedInt32Array(607, 605, 608), PackedInt32Array(611, 610, 609), PackedInt32Array(613, 612, 614), PackedInt32Array(614, 612, 616), PackedInt32Array(614, 616, 615), PackedInt32Array(620, 619, 617), PackedInt32Array(617, 619, 618), PackedInt32Array(624, 623, 621), PackedInt32Array(621, 623, 622), PackedInt32Array(626, 625, 627), PackedInt32Array(627, 625, 628), PackedInt32Array(630, 629, 631), PackedInt32Array(631, 629, 632), PackedInt32Array(636, 635, 633), PackedInt32Array(633, 635, 634), PackedInt32Array(640, 639, 637), PackedInt32Array(637, 639, 638), PackedInt32Array(643, 642, 641), PackedInt32Array(645, 644, 646), PackedInt32Array(646, 644, 647), PackedInt32Array(651, 650, 648), PackedInt32Array(648, 650, 649), PackedInt32Array(655, 654, 652), PackedInt32Array(652, 654, 653), PackedInt32Array(659, 658, 656), PackedInt32Array(656, 658, 657)]

[node name="SandBox" type="Node3D"]

[node name="DirectionalLight3D" type="DirectionalLight3D" parent="."]
transform = Transform3D(-0.866025, -0.433013, 0.25, 0, 0.5, 0.866025, -0.5, 0.75, -0.433013, 0, 0, 0)
shadow_enabled = true

[node name="WorldEnvironment" type="WorldEnvironment" parent="."]
environment = SubResource("Environment_cgopu")

[node name="Player" parent="." instance=ExtResource("1_mf6vm")]
transform = Transform3D(1, 0, 0, 0, 1, 0, 0, 0, 1, 0, 1, 0)

[node name="NavigationRegion3D" type="NavigationRegion3D" parent="."]
navigation_mesh = SubResource("NavigationMesh_vk16t")

[node name="LevelObjects" type="Node3D" parent="NavigationRegion3D"]

[node name="Platform" type="CSGBox3D" parent="NavigationRegion3D/LevelObjects"]
transform = Transform3D(1, 0, 0, 0, 1, 0, 0, 0, 1, -4, 0.5, -7)
use_collision = true
material = ExtResource("3_1nmsd")

[node name="Platform2" type="CSGBox3D" parent="NavigationRegion3D/LevelObjects"]
transform = Transform3D(3, 0, 0, 0, 3, 0, 0, 0, 2, -15, 1.5, 3)
use_collision = true
material = ExtResource("3_1nmsd")

[node name="Platform4" type="CSGBox3D" parent="NavigationRegion3D/LevelObjects"]
transform = Transform3D(3, 0, 0, 0, 2, 0, 0, 0, 2, -15, 1, 5)
use_collision = true
material = ExtResource("3_1nmsd")

[node name="Platform5" type="CSGBox3D" parent="NavigationRegion3D/LevelObjects"]
transform = Transform3D(3, 0, 0, 0, 1, 0, 0, 0, 2, -15, 0.5, 7)
use_collision = true
material = ExtResource("3_1nmsd")

[node name="Platform3" type="CSGBox3D" parent="NavigationRegion3D/LevelObjects"]
transform = Transform3D(3, 0, 0, 0, 4, 0, 0, 0, 2, -15, 2, 1)
use_collision = true
material = ExtResource("3_1nmsd")

[node name="CSGCylinder3D" type="CSGCylinder3D" parent="NavigationRegion3D/LevelObjects"]
transform = Transform3D(1, 0, 0, 0, 1, 0, 0, 0, 1, -13, 1.5, -6)
use_collision = true
radius = 2.5
height = 3.0
material = ExtResource("3_1nmsd")

[node name="CSGCylinder3D2" type="CSGCylinder3D" parent="NavigationRegion3D/LevelObjects"]
transform = Transform3D(1, 0, 0, 0, 1, 0, 0, 0, 1, 15, 0.5, -10)
use_collision = true
radius = 2.5
height = 1.0
material = ExtResource("3_1nmsd")

[node name="CSGCylinder3D3" type="CSGCylinder3D" parent="NavigationRegion3D/LevelObjects"]
transform = Transform3D(1, 0, 0, 0, 1, 0, 0, 0, 1, 15, 1, -3)
use_collision = true
radius = 2.5
material = ExtResource("3_1nmsd")

[node name="CSGCylinder3D4" type="CSGCylinder3D" parent="NavigationRegion3D/LevelObjects"]
transform = Transform3D(1, 0, 0, 0, 1, 0, 0, 0, 1, 15, 1.5, 4)
use_collision = true
radius = 2.5
height = 3.0
material = ExtResource("3_1nmsd")

[node name="CSGCylinder3D5" type="CSGCylinder3D" parent="NavigationRegion3D/LevelObjects"]
transform = Transform3D(1, 0, 0, 0, 1, 0, 0, 0, 1, 15, 2, 11)
use_collision = true
radius = 2.5
height = 4.0
material = ExtResource("3_1nmsd")

[node name="CSGCylinder3D6" type="CSGCylinder3D" parent="NavigationRegion3D/LevelObjects"]
transform = Transform3D(1, 0, 0, 0, 1, 0, 0, 0, 1, 8, 2.5, 11)
use_collision = true
radius = 2.5
height = 5.0
material = ExtResource("3_1nmsd")

[node name="CSGCylinder3D7" type="CSGCylinder3D" parent="NavigationRegion3D/LevelObjects"]
transform = Transform3D(1, 0, 0, 0, 1, 0, 0, 0, 1, -9, 2.5, 14)
use_collision = true
radius = 2.5
height = 5.0
material = ExtResource("3_1nmsd")

[node name="CSGCylinder3D8" type="CSGCylinder3D" parent="NavigationRegion3D/LevelObjects"]
transform = Transform3D(1, 0, 0, 0, 1, 0, 0, 0, 1, -8, 3, 11)
use_collision = true
radius = 2.5
height = 6.0
material = ExtResource("3_1nmsd")

[node name="CSGCylinder3D9" type="CSGCylinder3D" parent="NavigationRegion3D/LevelObjects"]
transform = Transform3D(1, 0, 0, 0, 1, 0, 0, 0, 1, -6, 3.5, 8)
use_collision = true
radius = 2.5
height = 7.0
material = ExtResource("3_1nmsd")

[node name="CSGCylinder3D10" type="CSGCylinder3D" parent="NavigationRegion3D/LevelObjects"]
transform = Transform3D(1, 0, 0, 0, 1, 0, 0, 0, 1, -4, 4, 5)
use_collision = true
radius = 2.5
height = 8.0
material = ExtResource("3_1nmsd")

[node name="CSGCylinder3D11" type="CSGCylinder3D" parent="NavigationRegion3D/LevelObjects"]
transform = Transform3D(1, 0, 0, 0, 1, 0, 0, 0, 1, -1, 4.5, 4)
use_collision = true
radius = 2.5
height = 9.0
material = ExtResource("3_1nmsd")

[node name="CSGCylinder3D12" type="CSGCylinder3D" parent="NavigationRegion3D/LevelObjects"]
transform = Transform3D(1, 0, 0, 0, 1, 0, 0, 0, 1, 2, 5, 4)
use_collision = true
radius = 2.5
height = 10.0
material = ExtResource("3_1nmsd")

[node name="CSGTorus3D" type="CSGTorus3D" parent="NavigationRegion3D/LevelObjects"]
transform = Transform3D(1, 0, 0, 0, 1, 0, 0, 0, 1, 0, 4, 12)
use_collision = true
inner_radius = 1.5
outer_radius = 3.0
material = ExtResource("5_4nc8i")

[node name="CSGPolygon3D" type="CSGPolygon3D" parent="NavigationRegion3D/LevelObjects"]
transform = Transform3D(-1, 0, 8.74228e-08, 0, 1, 0, -8.74228e-08, 0, -1, -13, 3, -14)
use_collision = true
polygon = PackedVector2Array(0, 0, 0, 0, 4, 4, 4, 0)
depth = 3.0
material = ExtResource("3_1nmsd")

[node name="CSGBox3D" type="CSGBox3D" parent="NavigationRegion3D/LevelObjects"]
transform = Transform3D(1, 0, 0, 0, 1, 0, 0, 0, 1, -5, 5, 22)
use_collision = true
size = Vector3(19, 1, 8)
material = ExtResource("3_1nmsd")

[node name="CSGCylinder3D13" type="CSGCylinder3D" parent="NavigationRegion3D/LevelObjects"]
transform = Transform3D(-4.37114e-08, 1, 0, -1, -4.37114e-08, 0, 0, 0, 1, -6, 4, -18)
use_collision = true
radius = 1.0
height = 20.0
sides = 5
material = ExtResource("3_1nmsd")

[node name="Building" type="CSGBox3D" parent="NavigationRegion3D/LevelObjects"]
transform = Transform3D(10, 0, 0, 0, 5, 0, 0, 0, 15, -22, 2.5, -16)
use_collision = true
material = ExtResource("5_kyrxu")

[node name="Building2" type="CSGBox3D" parent="NavigationRegion3D/LevelObjects"]
transform = Transform3D(10, 0, 0, 0, 5, 0, 0, 0, 15, -22, 2.5, 3)
use_collision = true
material = ExtResource("5_kyrxu")

[node name="Building4" type="CSGBox3D" parent="NavigationRegion3D/LevelObjects"]
transform = Transform3D(-4.37114e-07, 0, -15, 0, 6, 0, 10, 0, -6.55671e-07, 13, 3, 21)
use_collision = true
material = ExtResource("5_kyrxu")

[node name="Building3" type="CSGBox3D" parent="NavigationRegion3D/LevelObjects"]
transform = Transform3D(10, 0, 0, 0, 5, 0, 0, 0, 15, -22, 2.5, 22)
use_collision = true
material = ExtResource("5_kyrxu")

[node name="Floor" type="CSGBox3D" parent="NavigationRegion3D"]
transform = Transform3D(1, 0, 0, 0, 1, 0, 0, 0, 1, 0, -0.5, 0)
use_collision = true
size = Vector3(64, 1, 64)
material = ExtResource("1_iot7p")

[node name="Walls" type="Node3D" parent="."]

[node name="Wall" type="CSGBox3D" parent="Walls"]
transform = Transform3D(1, 0, 0, 0, 1, 0, 0, 0, 1, 32, 9.5, 0)
use_collision = true
size = Vector3(1, 20, 64)
material = ExtResource("2_ldy3r")

[node name="Wall2" type="CSGBox3D" parent="Walls"]
transform = Transform3D(1, 0, 0, 0, 1, 0, 0, 0, 1, -32, 9.5, 0)
use_collision = true
size = Vector3(1, 20, 64)
material = ExtResource("2_ldy3r")

[node name="Wall3" type="CSGBox3D" parent="Walls"]
transform = Transform3D(-4.37114e-08, 0, -1, 0, 1, 0, 1, 0, -4.37114e-08, 0, 9.5, -32)
use_collision = true
size = Vector3(1, 20, 64)
material = ExtResource("2_ldy3r")

[node name="Wall4" type="CSGBox3D" parent="Walls"]
transform = Transform3D(-4.37114e-08, 0, -1, 0, 1, 0, 1, 0, -4.37114e-08, 0, 9.5, 32)
use_collision = true
size = Vector3(1, 20, 64)
material = ExtResource("2_ldy3r")

[node name="Enemy" parent="." instance=ExtResource("7_hsv2b")]
transform = Transform3D(1, 0, 0, 0, 1, 0, 0, 0, 1, -25, 1, -29)

[node name="Pickups" type="Node3D" parent="."]

[node name="BulletPickup" parent="Pickups" instance=ExtResource("8_yck21")]
transform = Transform3D(1, 0, 0, 0, 1, 0, 0, 0, 1, -6, 1, -14)

[node name="SmallBulletPickup" parent="Pickups" instance=ExtResource("9_7iqkx")]
transform = Transform3D(1, 0, 0, 0, 1, 0, 0, 0, 1, 8, 1, -15)

[node name="BulletPickup2" parent="Pickups" instance=ExtResource("8_yck21")]
transform = Transform3D(1, 0, 0, 0, 1, 0, 0, 0, 1, -14, 4, -6)

[node name="SmallBulletPickup2" parent="Pickups" instance=ExtResource("9_7iqkx")]
transform = Transform3D(1, 0, 0, 0, 1, 0, 0, 0, 1, 13, 7, 20)
